{
  "source_id": "corpus-0094bcba637b",
  "source_name": "喜马拉雅（优）",
  "recorded_at": "1970-01-01T00:00:1782641445Z",
  "keyword": "斗破苍穹",
  "steps": [
    {
      "level": "L2-search",
      "url": "http://search.ximalaya.com/speed/album/v1/list?condition=relation&core=album&device=android&fq=categoryId:3&kw=%E6%96%97%E7%A0%B4%E8%8B%8D%E7%A9%B9&page=1&rows=20&spellchecker=true",
      "method": "GET",
      "request_headers": {
        "User-Agent": "Mozilla/5.0 (iPhone; CPU iPhone OS 16_0 like Mac OS X) AppleWebKit/605.1.15 (KHTML, like Gecko) Version/16.0 Mobile/15E148 Safari/604.1"
      },
      "request_body": null,
      "response_status": 200,
      "response_headers": {
        "connection": "keep-alive",
        "content-type": "text/plain;charset=UTF-8",
        "date": "Sun, 28 Jun 2026 10:10:44 GMT",
        "p2sp_switch": "on",
        "p2spios_switch": "on",
        "pcdn_switch": "on",
        "server": "Tengine",
        "transfer-encoding": "chunked",
        "vary": "Accept-Encoding",
        "x-a1-protocol-switch": "1",
        "x-a1-xdcs-collector-switch": "on",
        "x-b3-back-id": "forab",
        "x-idc-gw": "sh-bs@adse$1#xdcs-collector$1#mobile$10#mermaid$1",
        "x-server-costtime": "13"
      },
      "response_body": "{\"response\":{\"numFound\":1233,\"start\":0,\"totalPage\":62,\"docs\":[{\"id\":71860544,\"uid\":136502786,\"title\":\"绝世武帝（免费版）｜斗破苍穹｜扮猪吃虎｜爽文\",\"intro\":\"【惊喜回馈，粉丝福利】本专辑为免费慢更版，免费无限畅听！指路VIP完本专辑《绝世武帝（VIP完本版）》，提前解锁更多声音条，精彩快人一步！此处超链接点我直达更多更快更新的精彩内容，等你来解锁！欢迎订阅、收听、评论、分享！月票送一送！【内容简介...\",\"nickname\":\"善读文学\",\"tags\":\"[]\",\"category_id\":3,\"category_title\":\"有声书\",\"cover_path\":\"http://imagev2.xmcdn.com/storages/a28b-audiofreehighqps/8B/71/GKwRIasHK_vLAAMxXAG4YKHp.jpeg!op_type=3&columns=140&rows=140\",\"is_finished\":0,\"is_NoCopyright\":false,\"type\":\"1\",\"verify_type\":0,\"playCount\":78195343,\"trackCount\":2267,\"commentCount\":290,\"created_at\":\"2022-10-21 14:55:14\",\"updated_at\":\"2025-02-25 18:42:33\",\"last_uptrack_at\":\"2024-11-07 15:05:32\",\"__score\":0.8992574,\"user_source\":\"1\",\"highLightTitle2\":\"搜绝世武帝（VIP完本版）不等更新直通结局\",\"customTitle\":\"搜绝世武帝（VIP完本版）不等更新直通结局\",\"is_paid\":false,\"vipFree\":false,\"preferredType\":0,\"vipFreeType\":0},{\"id\":45702714,\"uid\":162260752,\"title\":\"斗破苍穹 | 原点儿免费版第一季丨玄幻丨影视同名\",\"intro\":\"原点儿听友会QQ群号是1043934876大家可以在这里交流！关注原点儿，原点儿一定会为我的听友们更新完，点击量二十亿的经典网络小说！萧炎，主人公，萧家历史上空前绝后的斗气修炼天才。4岁就开始修炼斗之气，10岁拥有了九段斗之气，11岁突破十段斗之气，一跃...\",\"nickname\":\"原点儿\",\"tags\":\"[]\",\"category_id\":3,\"category_title\":\"有声书\",\"cover_path\":\"http://imagev2.xmcdn.com/storages/66a0-audiofreehighqps/B2/6B/CMCoOR4D11VfAABKVAB8EFBN.jpg!op_type=3&columns=140&rows=140\",\"is_finished\":2,\"is_NoCopyright\":false,\"type\":\"1\",\"verify_type\":0,\"playCount\":5184094,\"trackCount\":160,\"commentCount\":173,\"created_at\":\"2021-01-15 21:02:24\",\"updated_at\":\"2025-03-03 15:00:31\",\"last_uptrack_at\":\"2021-02-28 02:29:08\",\"__score\":0.8211263,\"user_source\":\"1\",\"highLightTitle2\":\"关注原点儿的听友群哦，有惊喜！\",\"customTitle\":\"关注原点儿的听友群哦，有惊喜！\",\"is_paid\":false,\"vipFree\":false,\"preferredType\":0,\"vipFreeType\":0},{\"id\":54981507,\"uid\":124071974,\"title\":\"斗破苍穹之大世界|第二卷|公众号：斗破苍穹之大世界\",\"intro\":\"关注微信公众号：斗破苍穹之大世界（可以看小说文字版）小说简介：斗气大陆双帝之战后，炎帝萧炎用异火广场封印了魂天帝，拯救了斗气大陆，成为斗气大陆至尊。就这样萧炎在斗气大陆过了几十年平静安稳的日子，然而这种日子不适合他，他的血是热的，不应该...\",\"nickname\":\"懒人有声\",\"tags\":\"[]\",\"category_id\":3,\"category_title\":\"有声书\",\"cover_path\":\"http://imagev2.xmcdn.com/storages/2f48-audiofreehighqps/5E/06/GArMJnIKld2IAARYCAMBTXXv.jpeg!op_type=3&columns=140&rows=140\",\"is_finished\":0,\"is_NoCopyright\":false,\"type\":\"1\",\"verify_type\":0,\"playCount\":3214989,\"trackCount\":716,\"commentCount\":176,\"created_at\":\"2021-11-23 02:18:33\",\"updated_at\":\"2025-07-30 00:27:18\",\"last_uptrack_at\":\"2024-08-23 23:05:16\",\"__score\":0.7505651,\"user_source\":\"1\",\"highLightTitle2\":\"炎帝萧炎的至尊之路\",\"customTitle\":\"炎帝萧炎的至尊之路\",\"is_paid\":false,\"vipFree\":false,\"preferredType\":0,\"vipFreeType\":0},{\"id\":54572265,\"uid\":124071974,\"title\":\"斗破苍穹之大世界 | 公众号：斗破苍穹之大世界\",\"intro\":\"关注微信公众号：斗破苍穹之大世界小说简介：斗气大陆双帝之战后，炎帝萧炎用异火广场封印了魂天帝，拯救了斗气大陆，成为斗气大陆至尊。就这样萧炎在斗气大陆过了几十年平静安稳的日子，然而这种日子不适合他，他的血是热的，不应该就这样冷却下来。当斗...\",\"nickname\":\"懒人有声\",\"tags\":\"[]\",\"category_id\":3,\"category_title\":\"有声书\",\"cover_path\":\"http://imagev2.xmcdn.com/storages/ae36-audiofreehighqps/F4/4E/GArMCZkKld23AARXzAMBTYyK.jpeg!op_type=3&columns=140&rows=140\",\"is_finished\":0,\"is_NoCopyright\":false,\"type\":\"1\",\"verify_type\":0,\"playCount\":841212,\"trackCount\":78,\"commentCount\":57,\"created_at\":\"2021-11-08 20:50:47\",\"updated_at\":\"2026-03-12 12:15:38\",\"last_uptrack_at\":\"2025-07-18 11:28:11\",\"__score\":0.74217445,\"user_source\":\"1\",\"highLightTitle2\":\"炎帝萧炎的至尊之路\",\"customTitle\":\"炎帝萧炎的至尊之路\",\"is_paid\":false,\"vipFree\":false,\"preferredType\":0,\"vipFreeType\":0},{\"id\":69674334,\"uid\":47891139,\"title\":\"十二姐妹花陪我假修仙丨多女主丨斗破苍穹同人爽文\",\"intro\":\"仙界底层的小仙端木羽，在被前女友甩了之后，悲痛欲绝之下竟然获得芳心系统！只要获得异性的好感度提升，就能升级！女帝师姐，仙女小师妹，魔族大小姐，妖族小公主一个个都迷上了这小小仙王，端木羽在这芳心系统的帮助下，不仅明面上突破到高阶炼丹师，暗...\",\"nickname\":\"言鹿Ma\",\"tags\":\"[]\",\"category_id\":3,\"category_title\":\"有声书\",\"cover_path\":\"http://imagev2.xmcdn.com/storages/3857-audiofreehighqps/6F/70/GKwRIDoGajRJAAP5UAFgXxCX.jpg!op_type=3&columns=140&rows=140\",\"is_finished\":2,\"is_NoCopyright\":false,\"type\":\"1\",\"verify_type\":0,\"playCount\":1438170,\"trackCount\":214,\"commentCount\":151,\"created_at\":\"2022-07-20 11:06:26\",\"updated_at\":\"2025-03-03 20:49:32\",\"last_uptrack_at\":\"2022-09-05 17:30:27\",\"__score\":0.7355267,\"user_source\":\"1\",\"highLightTitle2\":\"仙界底层的小仙端木羽，在被前女友甩了之后，悲痛欲绝之下竟然获得芳心系统！只要获得异性的好感度提升，就能升级！女帝师姐，仙女小师妹，魔族大小姐，妖族小公主一个个都迷上了这小小仙王，端木羽在这芳心系统的帮助下，不仅明面上突破到高阶炼丹师，暗...\",\"is_paid\":false,\"vipFree\":false,\"preferredType\":0,\"vipFreeType\":0},{\"id\":70566372,\"uid\":192680427,\"title\":\"一切从斗破苍穹开始丨千影残光\",\"intro\":\"耳书 免费制作有声书www.ershu.vip填写邀请码：L3HN3P，领取50万字符只是稍稍抱怨一下人生的苏邪，突然之间就穿越了，穿越的地方竟然是斗破苍穹的世界，一个普通人如何在强者如云的斗气大陆生存呢！还好，苏邪觉醒了自己的金手指——崇拜系统，为了赚取崇...\",\"nickname\":\"哲人国\",\"tags\":\"[]\",\"category_id\":3,\"category_title\":\"有声书\",\"cover_path\":\"http://imagev2.xmcdn.com/storages/89e0-audiofreehighqps/B2/5F/GMCoOSUG31bbAANA8gGYRrzs.jpeg!op_type=3&columns=140&rows=140\",\"is_finished\":2,\"is_NoCopyright\":false,\"type\":\"1\",\"verify_type\":0,\"playCount\":3561822,\"trackCount\":1270,\"commentCount\":128,\"created_at\":\"2022-08-27 11:47:50\",\"updated_at\":\"2024-09-10 15:19:38\",\"last_uptrack_at\":\"2022-08-28 21:50:33\",\"__score\":0.7270549,\"user_source\":\"1\",\"highLightTitle2\":\"同步字幕\",\"customTitle\":\"同步字幕\",\"is_paid\":false,\"vipFree\":false,\"preferredType\":0,\"vipFreeType\":0},{\"id\":78912572,\"uid\":470263575,\"title\":\"签到逆天异火，我如何斗破苍穹\",\"intro\":\"斗破是一部充满紧张刺激和悬疑的小说。故事中，主人公斗破开始了他签到异火的旅程，但他并不知道这将是一段充满危险和考验的旅途。在他的旅程中，他将面临各种未知的挑战和险境，不断成长和突破自我。他将面对强大的敌人和阴谋，不断揭开背后的秘密和谜团...\",\"nickname\":\"2023梦幻之音\",\"tags\":\"[]\",\"category_id\":3,\"category_title\":\"有声书\",\"cover_path\":\"http://imagev2.xmcdn.com/storages/9b56-audiofreehighqps/5D/64/GMCoOR4JFlbMABt-CQJ2UIu-.png!op_type=3&columns=140&rows=140\",\"is_finished\":0,\"is_NoCopyright\":false,\"type\":\"1\",\"verify_type\":0,\"playCount\":1510870,\"trackCount\":830,\"commentCount\":21,\"created_at\":\"2023-10-31 13:42:37\",\"updated_at\":\"2025-01-10 16:53:46\",\"last_uptrack_at\":\"2024-02-22 11:39:32\",\"__score\":0.7176204,\"user_source\":\"1\",\"highLightTitle2\":\"签订奇异之约,斗破踏上险境之路\",\"customTitle\":\"签订奇异之约,斗破踏上险境之路\",\"is_paid\":false,\"vipFree\":false,\"preferredType\":0,\"vipFreeType\":0},{\"id\":80721012,\"uid\":89113896,\"title\":\"【双播】斗破苍穹之我觉醒了抽奖系统 |穿越 |系统\",\"intro\":\"意外穿越到斗破苍穹的世界，并且觉醒了抽奖系统开局直接抢夺原主机缘，剥离药老灵魂记忆且看主角如何玩转斗破世界！！！！！！！\",\"nickname\":\"小鱼儿_丢掉鳞片的鱼\",\"tags\":\"[]\",\"category_id\":3,\"category_title\":\"有声书\",\"cover_path\":\"http://imagev2.xmcdn.com/storages/4411-audiofreehighqps/F8/79/GMCoOSIJuO0sAAUf1QKxBJyE.jpeg!op_type=3&columns=140&rows=140\",\"is_finished\":2,\"is_NoCopyright\":false,\"type\":\"1\",\"verify_type\":0,\"playCount\":908921,\"trackCount\":221,\"commentCount\":31,\"created_at\":\"2024-03-02 21:37:10\",\"updated_at\":\"2024-09-10 15:23:41\",\"last_uptrack_at\":\"2024-05-29 16:27:44\",\"__score\":0.7038182,\"user_source\":\"1\",\"highLightTitle2\":\"开局抢夺原主机缘，消灭药老灵魂\",\"customTitle\":\"开局抢夺原主机缘，消灭药老灵魂\",\"is_paid\":false,\"vipFree\":false,\"preferredType\":0,\"vipFreeType\":0},{\"id\":78613361,\"uid\":84012279,\"title\":\"斗破苍穹之至高真神\",\"intro\":\"在这广袤宇宙中，位面碰撞，千局争锋，唤醒沉睡的巨龙，萧炎，一位摆脱了位面枷锁的火龙帝，降落在这未知的世界，将演绎何等传奇？无尽的顶尖强者涌现，不断追寻着那令人神往的主宰之路，探寻超越主宰的神秘领域。势力升华：巅峰至尊、绝世帝皇、逆天主宰...\",\"nickname\":\"传世神装战苍穹\",\"tags\":\"[]\",\"category_id\":3,\"category_title\":\"有声书\",\"cover_path\":\"http://imagev2.xmcdn.com/storages/94f7-audiofreehighqps/08/D9/GKwRINsJga0bABsMnQKd_7kE.png!op_type=3&columns=140&rows=140\",\"is_finished\":0,\"is_NoCopyright\":false,\"type\":\"1\",\"verify_type\":0,\"playCount\":757121,\"trackCount\":759,\"commentCount\":8,\"created_at\":\"2023-10-13 16:26:12\",\"updated_at\":\"2024-09-03 23:20:12\",\"last_uptrack_at\":\"2023-11-20 16:32:09\",\"__score\":0.6765174,\"user_source\":\"1\",\"highLightTitle2\":\"斗破苍穹之逆天主宰踏上神秘领域\",\"customTitle\":\"斗破苍穹之逆天主宰踏上神秘领域\",\"is_paid\":false,\"vipFree\":false,\"preferredType\":0,\"vipFreeType\":0},{\"id\":47262597,\"uid\":108952685,\"title\":\"《斗破苍穹》双播（免费版）\",\"intro\":\"斗破苍穹 | 免费（练习）小故里的听众群：907960181这里是属于斗气的世界，没有花俏艳丽的魔法，有的，仅仅是繁衍到巅峰的斗气！ 新书刚开，请各位兄弟多多支持，用推荐票和收藏，砸烂偶吧.^_^ 新书等级制度：斗者，斗师，大斗师，斗灵，斗王，斗皇，斗宗，斗尊，斗圣，斗帝。感谢女播灵逍逍小姐姐！感谢后期再板你一砖大哥.....\",\"nickname\":\"CV故里\",\"tags\":\"[]\",\"category_id\":3,\"category_title\":\"有声书\",\"cover_path\":\"http://imagev2.xmcdn.com/storages/9ad1-audiofreehighqps/BC/4D/CMCoOSQEFsQbAABYUACOpsXt.jpg!op_type=3&columns=140&rows=140\",\"is_finished\":2,\"is_NoCopyright\":false,\"type\":\"1\",\"verify_type\":0,\"playCount\":162878,\"trackCount\":93,\"commentCount\":64,\"created_at\":\"2021-03-04 23:47:40\",\"updated_at\":\"2024-09-21 05:31:57\",\"last_uptrack_at\":\"2021-03-04 23:47:40\",\"__score\":0.665766,\"user_source\":\"1\",\"highLightTitle2\":\"斗破苍穹 | 免费（练习）小故里的听众群：907960181这里是属于斗气的世界，没有花俏艳丽的魔法，有的，仅仅是繁衍到巅峰的斗气！ 新书刚开，请各位兄弟多多支持，用推荐票和收藏，砸烂偶吧.^_^ 新书等级制度：斗者，斗师，大斗师，斗灵，斗王，斗皇，斗宗，斗尊，斗圣，斗帝。感谢女播灵逍逍小姐姐！感谢后期再板你一砖大哥.....\",\"customTitle\":\"\",\"is_paid\":false,\"vipFree\":false,\"preferredType\":0,\"vipFreeType\":0},{\"id\":50006354,\"uid\":1014176,\"title\":\"斗破苍穹 | 多人混播-喜马免费听\",\"intro\":\"作为攀登计划13.0的学员，我们想不断的提升自己。所以录制这篇小说。只能录制到150集。全部免费。 演播：若素、shayne_猩猩、热热热乐乐乐 对应主播的个人主页，请帮忙点赞关注订阅一下哦 猩猩：https://www.ximalaya.com/zhubo/42826470/ 热热热乐乐乐：https://www.ximalaya.com/zhubo/225610556/ 欢迎各位小可爱提出宝贵意见。 这本书\",\"nickname\":\"若素\",\"tags\":\"[]\",\"category_id\":3,\"category_title\":\"有声书\",\"cover_path\":\"http://imagev2.xmcdn.com/storages/0c8d-audiofreehighqps/C8/DF/CKwRIJIEjCcSAANTawCz1r_U.jpeg!op_type=3&columns=140&rows=140\",\"is_finished\":0,\"is_NoCopyright\":false,\"type\":\"1\",\"verify_type\":0,\"playCount\":752816,\"trackCount\":193,\"commentCount\":42,\"created_at\":\"2021-06-02 00:45:11\",\"updated_at\":\"2024-09-21 05:47:20\",\"last_uptrack_at\":\"2021-06-02 00:45:11\",\"__score\":0.6607093,\"user_source\":\"1\",\"highLightTitle2\":\"莫问前路凶吉，但求落幕无悔！谢谢支持！\",\"customTitle\":\"莫问前路凶吉，但求落幕无悔！谢谢支持！\",\"is_paid\":false,\"vipFree\":false,\"preferredType\":0,\"vipFreeType\":0},{\"id\":54450100,\"uid\":52890801,\"title\":\"斗破苍穹之大世界\",\"intro\":\"业余制作，免费收听.\",\"nickname\":\"小燮燮\",\"tags\":\"[]\",\"category_id\":3,\"category_title\":\"有声书\",\"cover_path\":\"http://imagev2.xmcdn.com/storages/8081-audiofreehighqps/2A/E2/GKwRINsF_75tAAFwmgEnEHUy.png!op_type=3&columns=140&rows=140\",\"is_finished\":0,\"is_NoCopyright\":false,\"type\":\"1\",\"verify_type\":0,\"playCount\":4847883,\"trackCount\":887,\"commentCount\":137,\"created_at\":\"2021-11-04 18:13:53\",\"updated_at\":\"2025-04-18 10:06:34\",\"last_uptrack_at\":\"2025-04-18 08:51:41\",\"__score\":0.66020775,\"user_source\":\"1\",\"highLightTitle2\":\"斗破苍穹\",\"customTitle\":\"斗破苍穹\",\"is_paid\":false,\"vipFree\":false,\"preferredType\":0,\"vipFreeType\":0},{\"id\":69947910,\"uid\":74900129,\"title\":\"斗破苍穹【20亿网络点击神作】【免费版】\",\"intro\":\"新书限免 《道门摸金笔记丨摸金天师》→点击跳转收听←超长篇玄幻小说《太古魂帝》上架啦！点击收听→《太古魂帝》【抽年卡，音箱，耳机，月卡，现金红包····】超多听书福利等你来拿！萧炎，主人公，萧家历史上空前绝后的斗气修炼天才。4岁就开始修炼...\",\"nickname\":\"张健讲故事\",\"tags\":\"[]\",\"category_id\":3,\"category_title\":\"有声书\",\"cover_path\":\"http://imagev2.xmcdn.com/storages/80e6-audiofreehighqps/46/13/GMCoOSIGu0EHAAEzvwGLjyiK.jpg!op_type=3&columns=140&rows=140\",\"is_finished\":0,\"is_NoCopyright\":false,\"type\":\"1\",\"verify_type\":0,\"playCount\":2110887,\"trackCount\":434,\"commentCount\":69,\"created_at\":\"2022-07-31 02:47:34\",\"updated_at\":\"2024-12-20 08:52:34\",\"last_uptrack_at\":\"2024-01-08 10:00:04\",\"__score\":0.6597263,\"user_source\":\"1\",\"highLightTitle2\":\"至尊经典，斗帝归来！\",\"customTitle\":\"至尊经典，斗帝归来！\",\"is_paid\":false,\"vipFree\":false,\"preferredType\":0,\"vipFreeType\":0},{\"id\":92706909,\"uid\":524357426,\"title\":\"斗破苍穹丨玄幻\",\"intro\":\"萧炎，主人公，萧家历史上空前绝后的斗气修炼天才。4岁就开始修炼斗之气，10岁拥有了九段斗之气，11岁突破十段斗之气，一跃成为家族百年来最年轻的斗者。声誉名望达到顶峰的时候，却惨遭变故三年内斗气倒退至低阶三级变成了人人唾弃的废物。昔日荣耀荡然无...\",\"nickname\":\"奔跑的红皮\",\"tags\":\"[]\",\"category_id\":3,\"category_title\":\"有声书\",\"cover_path\":\"http://imagev2.xmcdn.com/storages/0d34-audiofreehighqps/41/6D/CMCoOSYDkN1WAAA70QBptFQ5.jpg!op_type=3&columns=140&rows=140\",\"is_finished\":2,\"is_NoCopyright\":false,\"type\":\"1\",\"verify_type\":0,\"playCount\":29050,\"trackCount\":235,\"commentCount\":0,\"created_at\":\"2025-05-11 09:15:27\",\"updated_at\":\"2025-08-06 14:02:20\",\"last_uptrack_at\":\"2025-05-19 06:14:00\",\"__score\":0.65368605,\"user_source\":\"1\",\"highLightTitle2\":\"萧炎，主人公，萧家历史上空前绝后的斗气修炼天才。4岁就开始修炼斗之气，10岁拥有了九段斗之气，11岁突破十段斗之气，一跃成为家族百年来最年轻的斗者。声誉名望达到顶峰的时候，却惨遭变故三年内斗气倒退至低阶三级变成了人人唾弃的废物。昔日荣耀荡然无...\",\"is_paid\":false,\"vipFree\":false,\"preferredType\":0,\"vipFreeType\":0},{\"id\":79769560,\"uid\":89015068,\"title\":\"【免费日更20】我在无双神府里修个仙丨热血修炼丨一剑独尊丨斗破苍穹丨AI多播\",\"intro\":\"福利来袭 1、日更10集，每日07：00更新2、首次订阅突破100加更10集，首次播放量突破10000加更10集，坚持点赞评论送月票，不定时加更3、关注主播、送月票，评论区坚持评论，每月抽月卡，更多福利活动+V：magicm1128（备注书名）进群参加~ 内容简介 无双神...\",\"nickname\":\"喜斓说\",\"tags\":\"[]\",\"category_id\":3,\"category_title\":\"有声书\",\"cover_path\":\"http://imagev2.xmcdn.com/storages/1af9-audiofreehighqps/0D/86/GMCoOSEJadiqAA02PwKV6pfc.jpg!op_type=3&columns=140&rows=140\",\"is_finished\":2,\"is_NoCopyright\":false,\"type\":\"1\",\"verify_type\":0,\"playCount\":1106749,\"trackCount\":700,\"commentCount\":67,\"created_at\":\"2023-12-25 10:24:52\",\"updated_at\":\"2025-01-10 18:28:34\",\"last_uptrack_at\":\"2024-04-12 07:00:38\",\"__score\":0.653109,\"user_source\":\"1\",\"highLightTitle2\":\"看慕凌风如何打怪升级，一幕幕为您揭开这个座大陆的故事……\",\"recommendReason\":\"看慕凌风如何打怪升级，一幕幕为您揭开这个座大陆的故事……\",\"customTitle\":\"看男儿岂惧举世敌，血雨尽握笑谈中。\",\"is_paid\":false,\"vipFree\":false,\"preferredType\":0,\"vipFreeType\":0},{\"id\":70664023,\"uid\":370714151,\"title\":\"斗破苍穹/热血 争霸大千世界\",\"intro\":\"双帝之战，炎帝萧炎名扬斗气大陆。位面开启，新的世界又会是何样？这里没有斗气，有的只是无尽的灵力！弱肉强食，这里是强者的世界！ 三十年河东，三十年河西，莫欺少年穷！以掌上异火，焚尽天下邪恶，以手中重尺，荡平天下不公！曾几何，一人创建天府，踏...\",\"nickname\":\"南岸青沐\",\"tags\":\"[]\",\"category_id\":3,\"category_title\":\"有声书\",\"cover_path\":\"http://imagev2.xmcdn.com/storages/80eb-audiofreehighqps/15/43/GMCoOScG5dYuAADVcgGaklAJ.jpg!op_type=3&columns=140&rows=140\",\"is_finished\":0,\"is_NoCopyright\":false,\"type\":\"1\",\"verify_type\":0,\"playCount\":210619,\"trackCount\":1010,\"commentCount\":3,\"created_at\":\"2022-08-31 18:57:16\",\"updated_at\":\"2024-09-03 22:42:45\",\"last_uptrack_at\":\"2022-08-31 18:57:16\",\"__score\":0.6390535,\"user_source\":\"1\",\"highLightTitle2\":\"双帝之战，炎帝萧炎名扬斗气大陆。位面开启，新的世界又会是何样？这里没有斗气，有的只是无尽的灵力！弱肉强食，这里是强者的世界！ 三十年河东，三十年河西，莫欺少年穷！以掌上异火，焚尽天下邪恶，以手中重尺，荡平天下不公！曾几何，一人创建天府，踏...\",\"customTitle\":\"\",\"is_paid\":false,\"vipFree\":false,\"preferredType\":0,\"vipFreeType\":0},{\"id\":77557330,\"uid\":96081362,\"title\":\"武霸乾坤 | 武侠玄幻 | 爽文 | AI多播 |斗破苍穹武动乾坤\",\"intro\":\"【收听福利】首更40集，每日更3集。每200订阅次日额外加更5集，每500订阅次日额外加更10集。不定期爆更。（还没听够就快来戳主播更新吧！） 【内容简介】奇才方胜，遭内门弟子暗算，丹田被毁贬为杂役；他不甘沦为废人，终得铭气锁助其脱胎换骨，隐世高人赠...\",\"nickname\":\"皇甫呼\",\"tags\":\"[]\",\"category_id\":3,\"category_title\":\"有声书\",\"cover_path\":\"http://imagev2.xmcdn.com/storages/dbc0-audiofreehighqps/3B/AA/GKwRIJIIr1hOAAMPKAJIqh7K.jpeg!op_type=3&columns=140&rows=140\",\"is_finished\":2,\"is_NoCopyright\":false,\"type\":\"1\",\"verify_type\":0,\"playCount\":120132,\"trackCount\":348,\"commentCount\":0,\"created_at\":\"2023-08-14 10:42:15\",\"updated_at\":\"2024-09-10 15:22:01\",\"last_uptrack_at\":\"2023-11-27 08:00:16\",\"__score\":0.6113681,\"user_source\":\"1\",\"highLightTitle2\":\"吞噬无尽苍穹，手摘星辰，力破乾坤！\",\"customTitle\":\"吞噬无尽苍穹，手摘星辰，力破乾坤！\",\"is_paid\":false,\"vipFree\":false,\"preferredType\":0,\"vipFreeType\":0},{\"id\":56640205,\"uid\":205885139,\"title\":\"斗破苍穹\",\"intro\":\"斗破苍穹，起点超燃小说\",\"nickname\":\"刘半禅修心立德\",\"tags\":\"[]\",\"category_id\":3,\"category_title\":\"有声书\",\"cover_path\":\"http://imagev2.xmcdn.com/storages/58fe-audiofreehighqps/B6/D8/GKwRINsFxZOGAAGoqwERFVmr.jpeg!op_type=3&columns=140&rows=140\",\"is_finished\":0,\"is_NoCopyright\":false,\"type\":\"1\",\"verify_type\":0,\"playCount\":1174412,\"trackCount\":150,\"commentCount\":91,\"created_at\":\"2022-01-25 18:27:29\",\"updated_at\":\"2025-02-24 21:43:52\",\"last_uptrack_at\":\"2022-01-25 18:58:55\",\"__score\":0.6068501,\"user_source\":\"1\",\"highLightTitle2\":\"斗破苍穹，起点超燃小说\",\"customTitle\":\"斗破苍穹，起点超燃小说\",\"is_paid\":false,\"vipFree\":false,\"preferredType\":0,\"vipFreeType\":0},{\"id\":63743990,\"uid\":132838671,\"title\":\"穿越从斗破开启|斗破苍穹同人|斗罗大陆同人\",\"intro\":\"穿越斗破苍穹，仅仅只是开端。丁晨本是一个业余作家，孤儿院长大，由于一次偶然的机会捡到一个造型怪异的戒指，被里面的时空妖灵书强行融合，获得了时空穿梭的能力。由于融合产生很多空间裂缝被强行传送到斗破位面，从此开始了它精彩的异位面生活。经历世...\",\"nickname\":\"大正先生\",\"tags\":\"[]\",\"category_id\":3,\"category_title\":\"有声书\",\"cover_path\":\"http://imagev2.xmcdn.com/storages/53c7-audiofreehighqps/74/75/GKwRIMAGK_HXAAL-PAE6610z.jpeg!op_type=3&columns=140&rows=140\",\"is_finished\":0,\"is_NoCopyright\":false,\"type\":\"1\",\"verify_type\":0,\"playCount\":958087,\"trackCount\":213,\"commentCount\":122,\"created_at\":\"2022-04-13 10:01:12\",\"updated_at\":\"2025-02-24 22:40:10\",\"last_uptrack_at\":\"2022-09-22 23:23:18\",\"__score\":0.59670466,\"user_source\":\"1\",\"highLightTitle2\":\"经历世界有：斗破苍穹、斗罗大陆\",\"customTitle\":\"经历世界有：斗破苍穹、斗罗大陆\",\"is_paid\":false,\"vipFree\":false,\"preferredType\":0,\"vipFreeType\":0},{\"id\":68600501,\"uid\":210504391,\"title\":\"斗破苍穹\",\"intro\":\"突破自我，走向巅峰，废柴崛起，斗破苍穹！\",\"nickname\":\"有声的存在\",\"tags\":\"[]\",\"category_id\":3,\"category_title\":\"有声书\",\"cover_path\":\"http://imagev2.xmcdn.com/storages/5246-audiofreehighqps/F6/C6/GMCoOSMGtcQjAAQbmQGIImhs.jpg!op_type=3&columns=140&rows=140\",\"is_finished\":2,\"is_NoCopyright\":false,\"type\":\"1\",\"verify_type\":0,\"playCount\":1576640,\"trackCount\":182,\"commentCount\":71,\"created_at\":\"2022-06-09 23:41:49\",\"updated_at\":\"2024-09-03 22:35:41\",\"last_uptrack_at\":\"2022-10-05 09:37:39\",\"__score\":0.5874556,\"user_source\":\"1\",\"highLightTitle2\":\"看地球少年如何玩转斗气大陆\",\"customTitle\":\"看地球少年如何玩转斗气大陆\",\"is_paid\":false,\"vipFree\":false,\"preferredType\":0,\"vipFreeType\":0}]},\"responseHeader\":{\"qTime\":13,\"status\":0,\"params\":{\"q\":\"斗破苍穹\",\"core\":\"album\",\"start\":0,\"rows\":20}}}",
      "final_url": "http://search.ximalaya.com/speed/album/v1/list?condition=relation&core=album&device=android&fq=categoryId:3&kw=%E6%96%97%E7%A0%B4%E8%8B%8D%E7%A9%B9&page=1&rows=20&spellchecker=true"
    }
  ]
}