{
  "source_id": "corpus-ce0638ede7d7",
  "source_name": "五丁音乐（优+）",
  "recorded_at": "1970-01-01T00:00:1782580208Z",
  "keyword": "斗破苍穹",
  "steps": [
    {
      "level": "L2-search",
      "url": "http://search.5sing.kugou.com/home/json?keyword=%E6%96%97%E7%A0%B4%E8%8B%8D%E7%A9%B9&sort=1&page=1&filter=0&type=0",
      "method": "GET",
      "request_headers": {
        "User-Agent": "Mozilla/5.0 (iPhone; CPU iPhone OS 16_0 like Mac OS X) AppleWebKit/605.1.15 (KHTML, like Gecko) Version/16.0 Mobile/15E148 Safari/604.1"
      },
      "request_body": null,
      "response_status": 200,
      "response_headers": {
        "connection": "keep-alive",
        "content-type": "application/json; charset=utf-8",
        "date": "Sat, 27 Jun 2026 17:10:08 GMT",
        "kg-bc-ms": "54",
        "kg-rs-ms": "1782580208514",
        "kg-svr-version": "r20260331.226392.1_t_20260331155012",
        "server": "kws",
        "transfer-encoding": "chunked",
        "vary": "Accept-Encoding"
      },
      "response_body": "{\"list\":[{\"createTime\":\"2013-03-22 12:23:00\",\"originSinger\":\"\",\"songName\":\"<em class=\\\"keyword\\\">\\u6597\\u7834\\u82cd\\u7a79<\\/em>\",\"status\":1,\"songSize\":9658835,\"style\":\"\",\"downloadCnt\":15435,\"playCnt\":532911,\"singer\":\"\\u6a59\\u7ffc\",\"postProduction\":\"\\u738b\\u535a\",\"popularityCnt\":29346871,\"songWriter\":\"ediq\",\"collectCnt\":2145,\"composer\":\"tony_ms\",\"songId\":1697329,\"ext\":\"mp3\",\"optComposer\":\"tony_ms\",\"nickName\":\"\\u58a8\\u660e\\u68cb\\u5999\",\"singerId\":9032120,\"type\":1,\"typeName\":\"\\u539f\\u521b\",\"songurl\":\"http:\\/\\/5sing.kugou.com\\/yc\\/1697329.html\",\"downloadurl\":\"http:\\/\\/5sing.kugou.com\\/yc\\/down\\/1697329\",\"typeEname\":\"yc\"},{\"createTime\":\"2013-11-12 17:03:00\",\"originSinger\":\"\\u6a59\\u7ffc\",\"songName\":\"<em class=\\\"keyword\\\">\\u6597\\u7834\\u82cd\\u7a79<\\/em>\",\"status\":1,\"collectCnt\":462,\"style\":\"\\u6d41\\u884c\",\"downloadCnt\":1638,\"playCnt\":80490,\"singer\":\"\\u4e94\\u97f3Jw\",\"postProduction\":\"\",\"popularityCnt\":5659052,\"songWriter\":\"\",\"composer\":\"\",\"songId\":11277406,\"optComposer\":\"\",\"ext\":\"mp3\",\"songSize\":9809546,\"nickName\":\"NULL\",\"singerId\":29903693,\"type\":2,\"typeName\":\"\\u7ffb\\u5531\",\"songurl\":\"http:\\/\\/5sing.kugou.com\\/fc\\/11277406.html\",\"downloadurl\":\"http:\\/\\/5sing.kugou.com\\/fc\\/down\\/11277406\",\"typeEname\":\"fc\"},{\"createTime\":\"2014-04-30 00:16:00\",\"originSinger\":\"\\u6a59\\u7ffc\",\"songName\":\"<em class=\\\"keyword\\\">\\u6597\\u7834\\u82cd\\u7a79<\\/em>\",\"status\":1,\"collectCnt\":1071,\"style\":\"\\u53e4\\u98ce|\\u6d41\\u884c\",\"downloadCnt\":1548,\"playCnt\":70524,\"singer\":\"\\u4f26\\u6851\",\"postProduction\":\"\",\"popularityCnt\":5071526,\"songWriter\":\"\",\"composer\":\"\",\"songId\":12737805,\"optComposer\":\"\",\"ext\":\"mp3\",\"songSize\":9900523,\"nickName\":\"NULL\",\"singerId\":21769331,\"type\":2,\"typeName\":\"\\u7ffb\\u5531\",\"songurl\":\"http:\\/\\/5sing.kugou.com\\/fc\\/12737805.html\",\"downloadurl\":\"http:\\/\\/5sing.kugou.com\\/fc\\/down\\/12737805\",\"typeEname\":\"fc\"},{\"createTime\":\"2013-03-23 20:52:00\",\"originSinger\":\"\",\"songName\":\"<em class=\\\"keyword\\\">\\u6597\\u7834\\u82cd\\u7a79<\\/em>\\uff08\\u58a8\\u5b9d\\uff09\",\"status\":1,\"songSize\":9658835,\"style\":\"\\u53e4\\u98ce|\\u52a8\\u6f2b\\/\\u6e38\\u620f|\\u7535\\u5b50\",\"downloadCnt\":1747,\"playCnt\":60984,\"singer\":\"\\u6a59\\u7ffc\",\"postProduction\":\"\\u738b\\u535a\\uff08O2\\u4e50\\u90bb\\uff09\",\"popularityCnt\":3628135,\"songWriter\":\"EDIQ\",\"collectCnt\":446,\"composer\":\"tony_ms\",\"songId\":1700393,\"ext\":\"mp3\",\"optComposer\":\"tony_ms\",\"nickName\":\"\\u6a59\\u7ffc\",\"singerId\":135076,\"type\":1,\"typeName\":\"\\u539f\\u521b\",\"songurl\":\"http:\\/\\/5sing.kugou.com\\/yc\\/1700393.html\",\"downloadurl\":\"http:\\/\\/5sing.kugou.com\\/yc\\/down\\/1700393\",\"typeEname\":\"yc\"},{\"createTime\":\"2011-08-24 20:39:00\",\"originSinger\":\"\",\"songName\":\"<em class=\\\"keyword\\\">\\u6597\\u7834\\u82cd\\u7a79<\\/em>\",\"status\":1,\"songSize\":0,\"style\":\"\",\"downloadCnt\":702,\"playCnt\":52332,\"singer\":\"\\u7530\\u8dc3\\u541b\",\"postProduction\":\"\\u9648\\u660e\",\"popularityCnt\":2287192,\"songWriter\":\"\\u7530\\u8dc3\\u541b\",\"collectCnt\":185,\"composer\":\"\\u7530\\u8dc3\\u541b\",\"songId\":803825,\"ext\":\"mp3\",\"optComposer\":\"\\u9648\\u660e\",\"nickName\":\"\\u7530\\u8dc3\\u541b\",\"singerId\":976894,\"type\":1,\"typeName\":\"\\u539f\\u521b\",\"songurl\":\"http:\\/\\/5sing.kugou.com\\/yc\\/803825.html\",\"downloadurl\":\"http:\\/\\/5sing.kugou.com\\/yc\\/down\\/803825\",\"typeEname\":\"yc\"},{\"createTime\":\"2018-09-26 11:55:46\",\"originSinger\":\"\",\"songName\":\"<em class=\\\"keyword\\\">\\u6597\\u7834\\u82cd\\u7a79<\\/em>\",\"status\":1,\"songSize\":8802313,\"style\":\"\\u52a8\\u6f2b\\/\\u6e38\\u620f\",\"downloadCnt\":162,\"playCnt\":13121,\"singer\":\"\\u7384\\u89de\",\"postProduction\":\"\\u6597\\u7834\\u82cd\\u7a79\\u5b98\\u65b9\",\"popularityCnt\":521569,\"songWriter\":\"\\u7409\\u7483\\u83cc\",\"collectCnt\":102,\"composer\":\"NICODE\",\"songId\":3716043,\"ext\":\"wav\",\"optComposer\":\"NICODE\",\"nickName\":\"\\u6597\\u7834\\u82cd\\u7a79\\u6597\\u5e1d\\u4e4b\\u8def_68205853\",\"singerId\":68205853,\"type\":1,\"typeName\":\"\\u539f\\u521b\",\"songurl\":\"http:\\/\\/5sing.kugou.com\\/yc\\/3716043.html\",\"downloadurl\":\"http:\\/\\/5sing.kugou.com\\/yc\\/down\\/3716043\",\"typeEname\":\"yc\"},{\"createTime\":\"2011-04-29 21:16:05\",\"originSinger\":\"\\u5c0f\\u65ed\",\"songName\":\"<em class=\\\"keyword\\\">\\u6597\\u7834\\u82cd\\u7a79<\\/em>\",\"status\":1,\"collectCnt\":7,\"style\":\"\",\"downloadCnt\":261,\"playCnt\":6966,\"singer\":\"\\u5251\\u8840\\u5dc5\\u4e91\",\"postProduction\":\"\",\"popularityCnt\":357623,\"songWriter\":\"\",\"composer\":\"\",\"songId\":833127,\"optComposer\":\"\",\"ext\":\"mp3\",\"songSize\":0,\"nickName\":\"\\u5251\\u8840\\u5dc5\\u4e91\",\"singerId\":3114109,\"type\":3,\"typeName\":\"\\u4f34\\u594f\",\"songurl\":\"http:\\/\\/5sing.kugou.com\\/bz\\/833127.html\",\"downloadurl\":\"http:\\/\\/5sing.kugou.com\\/bz\\/down\\/833127\",\"typeEname\":\"bz\"},{\"createTime\":\"2018-10-14 16:59:35\",\"originSinger\":\"\\u7384\\u89de\",\"songName\":\"<em class=\\\"keyword\\\">\\u6597\\u7834\\u82cd\\u7a79<\\/em>\\uff08<em class=\\\"keyword\\\">\\u6597\\u7834\\u82cd\\u7a79<\\/em>\\u540c\\u4eba\\u97f3\\u4e50\\u7ffb\\u5531\\uff09\",\"status\":1,\"collectCnt\":2,\"style\":\"\\u52a8\\u6f2b\\/\\u6e38\\u620f\",\"downloadCnt\":4,\"playCnt\":4163,\"singer\":\"\\u90bb\\u5bb6\\u5c0f\\u96c5\",\"postProduction\":\"\",\"popularityCnt\":154957,\"songWriter\":\"\",\"composer\":\"\",\"songId\":16749980,\"optComposer\":\"\",\"ext\":\"mp3\",\"songSize\":0,\"nickName\":\"\\u90bb\\u5bb6\\u5c0f\\u96c5\\u5c31\\u662f\\u6211\",\"singerId\":32905854,\"type\":2,\"typeName\":\"\\u7ffb\\u5531\",\"songurl\":\"http:\\/\\/5sing.kugou.com\\/fc\\/16749980.html\",\"downloadurl\":\"http:\\/\\/5sing.kugou.com\\/fc\\/down\\/16749980\",\"typeEname\":\"fc\"},{\"createTime\":\"2020-10-20 14:31:57\",\"originSinger\":\"\\u7530\\u8dc3\\u541b\",\"songName\":\"<em class=\\\"keyword\\\">\\u6597\\u7834\\u82cd\\u7a79<\\/em>\",\"status\":1,\"collectCnt\":1,\"style\":\"\\u53e4\\u98ce|\\u6d41\\u884c\",\"downloadCnt\":1,\"playCnt\":3645,\"singer\":\"\\u610f\\u5fc3\\u4e3a\\u5bf6\",\"postProduction\":\"\",\"popularityCnt\":135631,\"songWriter\":\"\",\"composer\":\"\",\"songId\":17631405,\"optComposer\":\"\",\"ext\":\"mp3\",\"songSize\":0,\"nickName\":\"\\u610f\\u7232\\u5bf6\",\"singerId\":74496675,\"type\":2,\"typeName\":\"\\u7ffb\\u5531\",\"songurl\":\"http:\\/\\/5sing.kugou.com\\/fc\\/17631405.html\",\"downloadurl\":\"http:\\/\\/5sing.kugou.com\\/fc\\/down\\/17631405\",\"typeEname\":\"fc\"},{\"createTime\":\"2021-09-01 08:55:29\",\"originSinger\":\"\\u6a59\\u7ffc\",\"songName\":\"<em class=\\\"keyword\\\">\\u6597\\u7834\\u82cd\\u7a79<\\/em>\",\"status\":1,\"collectCnt\":0,\"style\":\"\\u6d41\\u884c\",\"downloadCnt\":0,\"playCnt\":3577,\"singer\":\"\\u4ed8\\u535a\\u6587\",\"postProduction\":\"\",\"popularityCnt\":132349,\"songWriter\":\"\",\"composer\":\"\",\"songId\":17829030,\"optComposer\":\"\",\"ext\":\"mp3\",\"songSize\":0,\"nickName\":\"\\u4ed8\\u535a\\u6587\",\"singerId\":59006250,\"type\":2,\"typeName\":\"\\u7ffb\\u5531\",\"songurl\":\"http:\\/\\/5sing.kugou.com\\/fc\\/17829030.html\",\"downloadurl\":\"http:\\/\\/5sing.kugou.com\\/fc\\/down\\/17829030\",\"typeEname\":\"fc\"}],\"type\":0,\"pageInfo\":{\"cur\":1,\"totalCount\":110,\"totalPages\":11}}",
      "final_url": "http://search.5sing.kugou.com/home/json?keyword=%E6%96%97%E7%A0%B4%E8%8B%8D%E7%A9%B9&sort=1&page=1&filter=0&type=0"
    }
  ]
}