{
  "source_id": "corpus-92ae3ec4f8e6",
  "source_name": "喜马拉雅（优+）",
  "recorded_at": "1970-01-01T00:00:1782641432Z",
  "keyword": "斗破苍穹",
  "steps": [
    {
      "level": "L2-search",
      "url": "https://www.ximalaya.com/revision/search?core=album&spellchecker=true&rows=20&condition=relation&device=iPhone&fq=&paidFilter=false&kw=%E6%96%97%E7%A0%B4%E8%8B%8D%E7%A9%B9&page=1",
      "method": "GET",
      "request_headers": {
        "User-Agent": "Mozilla/5.0 (iPhone; CPU iPhone OS 16_0 like Mac OS X) AppleWebKit/605.1.15 (KHTML, like Gecko) Version/16.0 Mobile/15E148 Safari/604.1"
      },
      "request_body": null,
      "response_status": 200,
      "response_headers": {
        "access-control-allow-credentials": "true",
        "access-control-allow-headers": "Authorization,Content-Type,x-clamper-server-ip,X-Requested-With,xm-sign",
        "access-control-allow-methods": "GET, POST, OPTIONS",
        "access-control-allow-origin": "*",
        "access-control-expose-headers": "x-a1-front-switch",
        "connection": "keep-alive",
        "content-type": "text/plain; charset=UTF-8",
        "date": "Sun, 28 Jun 2026 10:10:17 GMT",
        "p2sp_switch": "on",
        "p2spios_switch": "on",
        "pcdn_switch": "on",
        "server": "CW",
        "set-cookie": "HWWAFSESID=da45e18a2099b102abb; path=/",
        "transfer-encoding": "chunked",
        "vary": "Accept-Encoding",
        "x-a1-front-switch": "on",
        "x-a1-xdcs-collector-switch": "on",
        "x-cache-lookup": "Cache Miss",
        "x-idc-gw": "sh-bs@adse$1#xdcs-collector$1#mobile$10#mermaid$1",
        "x-nws-log-uuid": "11410024824832133806"
      },
      "response_body": "{\"ret\":200,\"msg\":\"专辑检索结果\",\"data\":{\"result\":{\"response\":{\"docs\":[{\"play\":2448520269,\"user_source\":\"1\",\"cover_path\":\"//imagev2.xmcdn.com/group63/M09/C5/CD/wKgMaF0B_lHT0xh9AAGexs7WtMY059.jpg!op_type=3&columns=290&rows=290&magick=png\",\"title\":\"《斗破苍穹》20亿网络点击神作 | 原著无删减，畅听全集 | 多人有声剧\",\"uid\":16945541,\"url\":\"/album/4615999\",\"pinyin\":\"youshengshu\",\"category_id\":3,\"intro\":\"新书限时免费：天蚕土豆定鼎神作，斗帝萧炎的旷世热血传奇史诗《斗破苍穹》，年度巨献点击收听超级IP改编有声剧，玄幻网文至尊经典小说！网络总点击20亿次！各大网络文学榜单NO.1大满贯之作！天蚕土豆斗气小说定鼎神作，有声演绎斗帝萧炎的旷世热血传奇史...\",\"id\":4615999,\"is_paid\":true,\"is_finished\":2,\"tags\":\"热播影视剧,暮玖,天蚕土豆,古代玄幻,武侠仙侠,玄幻网文,萧炎,会员,VIP,VIP会员,传奇史诗,会员免费,VIP免费\",\"category_title\":\"有声书\",\"isDraft\":false,\"created_at\":1467120774000,\"type\":\"1\",\"display_price_with_unit\":\"0.20喜点/集\",\"last_uptrack_at_hour\":87859,\"discounted_price\":0.2,\"is_v\":true,\"refund_support_type\":0,\"count_comment\":26282,\"score\":8.7,\"price_type_id\":1,\"updated_at\":1735542898000,\"isVipFree\":false,\"price\":0.2,\"nickname\":\"暮玖Ayla\",\"custom_title\":\"有声演绎斗帝萧炎的旷世热血传奇史诗！\",\"verify_type\":2,\"vipFreeType\":1,\"priceUnit\":\"喜点/集\",\"display_discounted_price_with_unit\":\"0.20喜点/集\",\"serialState\":2,\"price_type_enum\":1,\"tracks\":1191,\"price_unit_per_track\":\"喜点/集\",\"isNoCopyright\":false,\"comments_count\":0,\"price_types\":[{\"free_track_count\":0,\"price_unit\":\"喜点/集\",\"price_type_id\":1,\"price\":\"0.20\",\"total_track_count\":0,\"id\":4615999,\"discounted_price\":\"0.20\"}],\"anchorUrl\":\"/zhubo/16945541\",\"richTitle\":\"《<span class =\\\"orange-1\\\">斗破苍穹</span>》20亿网络点击神作 | 原著无删减，畅听全集 | 多人有声剧\",\"vipType\":2},{\"play\":48477868,\"user_source\":\"1\",\"cover_path\":\"//imagev2.xmcdn.com/storages/ab70-audiofreehighqps/03/7E/GKwRIJIMS9frAAUNNwPittp4.jpeg!op_type=3&columns=290&rows=290&magick=png\",\"title\":\"斗破苍穹 全景声 | 天蚕土豆著 | 辰羽工作室演播 | 经典玄幻小说\",\"uid\":34615548,\"url\":\"/album/97588365\",\"pinyin\":\"youshengshu\",\"category_id\":3,\"intro\":\"9月活动来袭：9.1-9.30月票榜第一名50元红包，2-3名20元红包，4-10名10元红包。2.每周评论区抽取一名幸运听众评论，送10元红包。3.第一集，以及每整百集，设置评论抽奖，每个设置5名10元红包奖项。 4.五星好评抽奖：每月抽两名送50元红包购买须知1、本作品...\",\"id\":97588365,\"is_paid\":true,\"is_finished\":1,\"category_title\":\"有声书\",\"isDraft\":false,\"created_at\":1752566506000,\"type\":\"1\",\"display_price_with_unit\":\"0.20喜点/集\",\"last_uptrack_at_hour\":120450,\"discounted_price\":0.2,\"is_v\":true,\"refund_support_type\":0,\"count_comment\":454,\"score\":10.0,\"price_type_id\":1,\"updated_at\":1782616696000,\"isVipFree\":false,\"price\":0.2,\"nickname\":\"辰羽工作室\",\"custom_title\":\"心潮澎湃，无限幻想，迎风挥击千层浪，少年不败热血！\",\"verify_type\":2,\"vipFreeType\":1,\"priceUnit\":\"喜点/集\",\"display_discounted_price_with_unit\":\"0.20喜点/集\",\"serialState\":1,\"price_type_enum\":1,\"tracks\":2087,\"price_unit_per_track\":\"喜点/集\",\"isNoCopyright\":false,\"comments_count\":0,\"price_types\":[{\"free_track_count\":0,\"price_unit\":\"喜点/集\",\"price_type_id\":1,\"price\":\"0.20\",\"total_track_count\":4000,\"id\":97588365,\"discounted_price\":\"0.20\"}],\"anchorUrl\":\"/zhubo/34615548\",\"richTitle\":\"<span class =\\\"orange-1\\\">斗破苍穹</span> 全景声 | 天蚕土豆著 | 辰羽工作室演播 | 经典玄幻小说\",\"vipType\":2},{\"play\":169275176,\"user_source\":\"1\",\"cover_path\":\"//imagev2.xmcdn.com/storages/3d82-audiofreehighqps/CA/18/GKwRIaIFcRsaAANPOwD6CW-4.jpg!op_type=3&columns=290&rows=290&magick=png\",\"title\":\"斗破苍穹｜大灰狼演播 | 天蚕土豆 | 多人有声剧\",\"uid\":253158283,\"url\":\"/album/54985342\",\"pinyin\":\"youshengshu\",\"category_id\":3,\"intro\":\"【内容简介】 萧炎，主人公，萧家历史上空前绝后的斗气修炼天才。4岁就开始修炼斗之气，10岁拥有了九段斗之气，11岁突破十段斗之气，一跃成为家族百年来最年轻的斗者。然而在12岁那年，他却“丧失”了修炼能力，只拥有三段斗之气。整整三年时间，家族冷落...\",\"id\":54985342,\"is_paid\":true,\"is_finished\":2,\"tags\":\"玄幻,热血,IP,有声小说,逆袭,爽文\",\"category_title\":\"有声书\",\"isDraft\":false,\"created_at\":1637633567000,\"type\":\"1\",\"display_price_with_unit\":\"0.10喜点/集\",\"last_uptrack_at_hour\":84619,\"discounted_price\":0.1,\"is_v\":true,\"refund_support_type\":0,\"count_comment\":1197,\"score\":9.0,\"price_type_id\":1,\"updated_at\":1739793889000,\"isVipFree\":false,\"price\":0.1,\"nickname\":\"主播大灰狼\",\"custom_title\":\"至尊经典，斗帝归来！\",\"verify_type\":2,\"vipFreeType\":1,\"priceUnit\":\"喜点/集\",\"display_discounted_price_with_unit\":\"0.10喜点/集\",\"serialState\":2,\"price_type_enum\":1,\"tracks\":1778,\"price_unit_per_track\":\"喜点/集\",\"isNoCopyright\":false,\"comments_count\":0,\"price_types\":[{\"free_track_count\":0,\"price_unit\":\"喜点/集\",\"price_type_id\":1,\"price\":\"0.10\",\"total_track_count\":0,\"id\":54985342,\"discounted_price\":\"0.10\"}],\"anchorUrl\":\"/zhubo/253158283\",\"richTitle\":\"<span class =\\\"orange-1\\\">斗破苍穹</span>｜大灰狼演播 | 天蚕土豆 | 多人有声剧\",\"vipType\":2},{\"play\":5184093,\"user_source\":\"1\",\"cover_path\":\"//imagev2.xmcdn.com/storages/66a0-audiofreehighqps/B2/6B/CMCoOR4D11VfAABKVAB8EFBN.jpg!op_type=3&columns=290&rows=290&magick=png\",\"title\":\"斗破苍穹 | 原点儿免费版第一季丨玄幻丨影视同名\",\"uid\":162260752,\"url\":\"/album/45702714\",\"pinyin\":\"youshengshu\",\"category_id\":3,\"intro\":\"原点儿听友会QQ群号是1043934876大家可以在这里交流！关注原点儿，原点儿一定会为我的听友们更新完，点击量二十亿的经典网络小说！萧炎，主人公，萧家历史上空前绝后的斗气修炼天才。4岁就开始修炼斗之气，10岁拥有了九段斗之气，11岁突破十段斗之气，一跃...\",\"id\":45702714,\"is_paid\":false,\"is_finished\":2,\"category_title\":\"有声书\",\"isDraft\":false,\"created_at\":1610715744000,\"type\":\"1\",\"last_uptrack_at_hour\":73738,\"is_v\":true,\"refund_support_type\":0,\"count_comment\":173,\"score\":9.7,\"price_type_id\":0,\"updated_at\":1740985231000,\"isVipFree\":false,\"nickname\":\"原点儿\",\"custom_title\":\"关注原点儿的听友群哦，有惊喜！\",\"verify_type\":1,\"vipFreeType\":0,\"serialState\":2,\"price_type_enum\":0,\"tracks\":160,\"isNoCopyright\":false,\"comments_count\":0,\"price_types\":[],\"anchorUrl\":\"/zhubo/162260752\",\"richTitle\":\"<span class =\\\"orange-1\\\">斗破苍穹</span> | 原点儿免费版第一季丨玄幻丨影视同名\",\"vipType\":0},{\"play\":169308350,\"user_source\":\"1\",\"cover_path\":\"//imagev2.xmcdn.com/storages/7145-audiofreehighqps/16/15/GKwRIUEFcgIFAALUNQD6TdGm.jpg!op_type=3&columns=290&rows=290&magick=png\",\"title\":\"斗破苍穹 | 单人播讲：桑梓典藏完整版丨王者归来\",\"uid\":20115042,\"url\":\"/album/54985440\",\"pinyin\":\"youshengshu\",\"category_id\":3,\"intro\":\"【内容简介】 萧炎，主人公，萧家历史上空前绝后的斗气修炼天才。4岁就开始修炼斗之气，10岁拥有了九段斗之气，11岁突破十段斗之气，一跃成为家族百年来最年轻的斗者。然而在12岁那年，他却“丧失”了修炼能力，只拥有三段斗之气。整整三年时间，家族冷落...\",\"id\":54985440,\"is_paid\":true,\"is_finished\":2,\"tags\":\"玄幻,热血,逆袭,IP,有声小说\",\"category_title\":\"有声书\",\"isDraft\":false,\"created_at\":1637633931000,\"type\":\"1\",\"display_price_with_unit\":\"0.20喜点/集\",\"last_uptrack_at_hour\":88891,\"discounted_price\":0.2,\"is_v\":true,\"refund_support_type\":0,\"count_comment\":2240,\"score\":9.2,\"price_type_id\":1,\"updated_at\":1773995008000,\"isVipFree\":false,\"price\":0.2,\"nickname\":\"华音凡人剧场\",\"custom_title\":\"燃热血，斗魂族，历尽磨难终傲世苍穹\",\"verify_type\":2,\"vipFreeType\":1,\"priceUnit\":\"喜点/集\",\"display_discounted_price_with_unit\":\"0.20喜点/集\",\"serialState\":2,\"price_type_enum\":1,\"tracks\":2326,\"price_unit_per_track\":\"喜点/集\",\"isNoCopyright\":false,\"comments_count\":0,\"price_types\":[{\"free_track_count\":0,\"price_unit\":\"喜点/集\",\"price_type_id\":1,\"price\":\"0.20\",\"total_track_count\":0,\"id\":54985440,\"discounted_price\":\"0.20\"}],\"anchorUrl\":\"/zhubo/20115042\",\"richTitle\":\"<span class =\\\"orange-1\\\">斗破苍穹</span> | 单人播讲：桑梓典藏完整版丨王者归来\",\"vipType\":2},{\"play\":17519996,\"user_source\":\"1\",\"cover_path\":\"//imagev2.xmcdn.com/storages/e1d4-audiofreehighqps/E3/22/GKwRIDoHBzLGAARs7gGnjI9S.jpeg!op_type=3&columns=290&rows=290&magick=png\",\"title\":\"斗破苍穹丨玄幻网文至尊经典丨超级IP改编多人有声剧丨天蚕土豆定鼎神作丨徐宇隆&倒霉死勒\",\"uid\":16945541,\"url\":\"/album/70003674\",\"pinyin\":\"youshengshu\",\"category_id\":3,\"intro\":\"喜马拉雅×阅文集团×三撇一捺×艺海佳音×株木琅玛年度巨献超级IP改编有声剧，玄幻网文至尊经典小说！天蚕土豆定鼎神作斗帝萧炎的旷世热血传奇史诗三十年河东，三十年河西，莫欺少年穷！内容简介 萧炎，主人公，萧家历史上空前绝后的斗气修炼天才。4岁就...\",\"id\":70003674,\"is_paid\":true,\"is_finished\":2,\"category_title\":\"有声书\",\"isDraft\":false,\"created_at\":1659413399000,\"type\":\"1\",\"display_price_with_unit\":\"0.30喜点/集\",\"last_uptrack_at_hour\":88918,\"discounted_price\":0.3,\"is_v\":true,\"refund_support_type\":0,\"count_comment\":2363,\"score\":9.4,\"price_type_id\":1,\"updated_at\":1735543606000,\"isVipFree\":false,\"price\":0.3,\"nickname\":\"暮玖Ayla\",\"custom_title\":\"超级IP+顶级配音阵容，斗帝萧炎的旷世热血传奇史诗\",\"verify_type\":2,\"vipFreeType\":1,\"priceUnit\":\"喜点/集\",\"display_discounted_price_with_unit\":\"0.30喜点/集\",\"serialState\":2,\"price_type_enum\":1,\"tracks\":172,\"price_unit_per_track\":\"喜点/集\",\"isNoCopyright\":false,\"comments_count\":0,\"price_types\":[{\"free_track_count\":0,\"price_unit\":\"喜点/集\",\"price_type_id\":1,\"price\":\"0.30\",\"total_track_count\":0,\"id\":70003674,\"discounted_price\":\"0.30\"}],\"anchorUrl\":\"/zhubo/16945541\",\"richTitle\":\"<span class =\\\"orange-1\\\">斗破苍穹</span>丨玄幻网文至尊经典丨超级IP改编多人有声剧丨天蚕土豆定鼎神作丨徐宇隆&倒霉死勒\",\"vipType\":2},{\"play\":29050,\"user_source\":\"1\",\"cover_path\":\"//imagev2.xmcdn.com/storages/0d34-audiofreehighqps/41/6D/CMCoOSYDkN1WAAA70QBptFQ5.jpg!op_type=3&columns=290&rows=290&magick=png\",\"title\":\"斗破苍穹丨玄幻\",\"uid\":524357426,\"url\":\"/album/92706909\",\"pinyin\":\"youshengshu\",\"category_id\":3,\"intro\":\"萧炎，主人公，萧家历史上空前绝后的斗气修炼天才。4岁就开始修炼斗之气，10岁拥有了九段斗之气，11岁突破十段斗之气，一跃成为家族百年来最年轻的斗者。声誉名望达到顶峰的时候，却惨遭变故三年内斗气倒退至低阶三级变成了人人唾弃的废物。昔日荣耀荡然无...\",\"id\":92706909,\"is_paid\":false,\"is_finished\":2,\"category_title\":\"有声书\",\"isDraft\":false,\"created_at\":1746926127000,\"type\":\"1\",\"last_uptrack_at_hour\":110726,\"is_v\":true,\"refund_support_type\":0,\"count_comment\":0,\"price_type_id\":0,\"updated_at\":1754460140000,\"isVipFree\":false,\"nickname\":\"奔跑的红皮\",\"verify_type\":1,\"vipFreeType\":0,\"serialState\":2,\"price_type_enum\":0,\"tracks\":235,\"isNoCopyright\":false,\"price_types\":[],\"anchorUrl\":\"/zhubo/524357426\",\"richTitle\":\"<span class =\\\"orange-1\\\">斗破苍穹</span>丨玄幻\",\"vipType\":0},{\"play\":5468852,\"user_source\":\"1\",\"cover_path\":\"//imagev2.xmcdn.com/storages/f9f1-audiofreehighqps/5D/C6/GMCoOSMHQvVRAAF9GwHIFlJB.jpg!op_type=3&columns=290&rows=290&magick=png\",\"title\":\"斗破苍穹：无尽炎帝\",\"uid\":162246120,\"url\":\"/album/72382427\",\"pinyin\":\"yule\",\"category_id\":4,\"intro\":\"斗破苍穹：无尽炎帝，来啦，讲的是潇焱前往大千世界发生的故事。\",\"id\":72382427,\"is_paid\":false,\"is_finished\":0,\"category_title\":\"娱乐\",\"isDraft\":false,\"created_at\":1668100690000,\"type\":\"1\",\"last_uptrack_at_hour\":96022,\"is_v\":true,\"refund_support_type\":0,\"count_comment\":188,\"score\":9.1,\"price_type_id\":0,\"updated_at\":1740718332000,\"isVipFree\":false,\"nickname\":\"老王说动漫\",\"verify_type\":1,\"vipFreeType\":0,\"serialState\":0,\"price_type_enum\":0,\"tracks\":193,\"isNoCopyright\":false,\"comments_count\":0,\"price_types\":[],\"anchorUrl\":\"/zhubo/162246120\",\"richTitle\":\"<span class =\\\"orange-1\\\">斗破苍穹</span>：无尽炎帝\",\"vipType\":0},{\"play\":781335,\"user_source\":\"1\",\"cover_path\":\"//imagev2.xmcdn.com/storages/1acb-audiofreehighqps/35/2A/GMCoOSMJIddFAAGZ4AJ6lsRn.jpg!op_type=3&columns=290&rows=290&magick=png\",\"title\":\"免费｜斗破苍穹｜天蚕土豆原著 动漫\",\"uid\":277954713,\"url\":\"/album/57218245\",\"pinyin\":\"yule\",\"category_id\":4,\"intro\":\"斗破同人小说，《傲剑凌云》，震撼上架，敬请关注! 三十年河东，三十年河西，莫欺少年穷！年仅15岁的萧家废物，于此地，立下誓言，从今以后便一步步走向斗气大陆巅峰！经历了一系列的磨练，收异火，寻宝物，炼丹药，斗魂族。最终成为斗帝，为解开斗帝失踪...\",\"id\":57218245,\"is_paid\":false,\"is_finished\":2,\"category_title\":\"娱乐\",\"isDraft\":false,\"created_at\":1645342189000,\"type\":\"1\",\"last_uptrack_at_hour\":87991,\"is_v\":true,\"refund_support_type\":0,\"count_comment\":56,\"score\":9.5,\"price_type_id\":0,\"updated_at\":1733962385000,\"isVipFree\":false,\"nickname\":\"鱼七公子_北辰剧社\",\"custom_title\":\"天蚕土豆封神之作\",\"verify_type\":1,\"vipFreeType\":0,\"serialState\":2,\"price_type_enum\":0,\"tracks\":84,\"isNoCopyright\":false,\"comments_count\":0,\"price_types\":[],\"anchorUrl\":\"/zhubo/277954713\",\"richTitle\":\"免费｜<span class =\\\"orange-1\\\">斗破苍穹</span>｜天蚕土豆原著 动漫\",\"vipType\":0},{\"play\":195135,\"user_source\":\"1\",\"cover_path\":\"//imagev2.xmcdn.com/storages/bbec-audiofreehighqps/CE/25/GAqhDJEK-3BfAAHG5gMoqS8V.jpg!op_type=3&columns=290&rows=290&magick=png\",\"title\":\"斗破苍穹解说\",\"uid\":269371704,\"url\":\"/album/84287032\",\"pinyin\":\"yule\",\"category_id\":4,\"intro\":\"主播: 木槿旧寂\",\"id\":84287032,\"is_paid\":false,\"is_finished\":0,\"category_title\":\"娱乐\",\"isDraft\":false,\"created_at\":1730522464000,\"type\":\"1\",\"last_uptrack_at_hour\":119518,\"is_v\":true,\"refund_support_type\":0,\"count_comment\":3,\"score\":0.0,\"price_type_id\":0,\"updated_at\":1779263794000,\"isVipFree\":false,\"nickname\":\"木槿旧寂\",\"verify_type\":1,\"vipFreeType\":0,\"serialState\":0,\"price_type_enum\":0,\"tracks\":377,\"isNoCopyright\":false,\"comments_count\":0,\"price_types\":[],\"anchorUrl\":\"/zhubo/269371704\",\"richTitle\":\"<span class =\\\"orange-1\\\">斗破苍穹</span>解说\",\"vipType\":0},{\"play\":29442579,\"user_source\":\"1\",\"cover_path\":\"//imagev2.xmcdn.com/group82/M05/0E/05/wKg5Il8n2b-TxfN1AAf7yB9kSzA840.jpg!op_type=3&columns=290&rows=290&magick=png\",\"title\":\"斗破苍穹 | 招继斌播讲版（粤语）\",\"uid\":101742817,\"url\":\"/album/40516993\",\"pinyin\":\"youshengshu\",\"category_id\":3,\"intro\":\"招继斌最新力作！点击收听>>> 法医秦明系列丨粤语版丨招继斌演播超级IP改编粤语有声书，玄幻网文至尊经典小说！网络总点击20亿次！各大网络文学榜单NO.1大满贯之作！天蚕土豆斗气小说定鼎神作，有声演绎斗帝萧炎的旷世热血传奇史诗！内容简介 萧炎，主人...\",\"id\":40516993,\"is_paid\":true,\"is_finished\":2,\"tags\":\"古代玄幻,武侠仙侠,玄幻网文,萧炎,粤语,有声小说\",\"category_title\":\"有声书\",\"isDraft\":false,\"created_at\":1596448616000,\"type\":\"1\",\"display_price_with_unit\":\"0.15喜点/集\",\"last_uptrack_at_hour\":86639,\"discounted_price\":0.15,\"is_v\":true,\"refund_support_type\":0,\"count_comment\":1194,\"score\":9.6,\"price_type_id\":1,\"updated_at\":1775372744000,\"isVipFree\":false,\"price\":0.15,\"nickname\":\"喜马拉雅粤语频道\",\"custom_title\":\"超级IP改编粤语有声书，玄幻网文至尊经典小说\",\"verify_type\":2,\"vipFreeType\":1,\"priceUnit\":\"喜点/集\",\"display_discounted_price_with_unit\":\"0.15喜点/集\",\"serialState\":2,\"price_type_enum\":1,\"tracks\":1635,\"price_unit_per_track\":\"喜点/集\",\"isNoCopyright\":false,\"comments_count\":0,\"price_types\":[{\"free_track_count\":0,\"price_unit\":\"喜点/集\",\"price_type_id\":1,\"price\":\"0.15\",\"total_track_count\":0,\"id\":40516993,\"discounted_price\":\"0.15\"}],\"anchorUrl\":\"/zhubo/101742817\",\"richTitle\":\"<span class =\\\"orange-1\\\">斗破苍穹</span> | 招继斌播讲版（粤语）\",\"vipType\":2},{\"play\":362189327,\"user_source\":\"1\",\"cover_path\":\"//imagev2.xmcdn.com/group75/M0B/A2/79/wKgO016DK8KDDxdLAAIWAoLi-94635.jpg!op_type=3&columns=290&rows=290&magick=png\",\"title\":\"斗破之无上之境Ⅰ斗破苍穹续集多人剧\",\"uid\":39840471,\"url\":\"/album/18743094\",\"pinyin\":\"youshengshu\",\"category_id\":3,\"intro\":\"斗破追上作者进度不够听？欢迎收听焚天之怒，依旧热血玄幻，已更千集以上，爆更爽听呦！【作品介绍】这本书是斗破苍穹的续集，斗破苍穹对于很多人来说有一种特殊的情怀，不愿它就这样结束，而在这本中一个全新的位面将向我们打开，让我们在这个新的位面中...\",\"id\":18743094,\"is_paid\":true,\"is_finished\":1,\"tags\":\"斗破苍穹续集,龙汐,多人有声小说,斗破苍穹,斗帝,夜雨闻铃0,古装玄幻,干净,斗破续集,123活动小说\",\"category_title\":\"有声书\",\"isDraft\":false,\"created_at\":1539162722000,\"type\":\"1\",\"display_price_with_unit\":\"0.15喜点/集\",\"last_uptrack_at_hour\":120437,\"discounted_price\":0.15,\"is_v\":true,\"refund_support_type\":0,\"count_comment\":7785,\"score\":8.9,\"price_type_id\":1,\"updated_at\":1782576325000,\"isVipFree\":false,\"price\":0.15,\"nickname\":\"干净oo\",\"custom_title\":\"近期会转VIP，望周知！\",\"verify_type\":2,\"vipFreeType\":1,\"priceUnit\":\"喜点/集\",\"display_discounted_price_with_unit\":\"0.15喜点/集\",\"serialState\":1,\"price_type_enum\":1,\"tracks\":3981,\"price_unit_per_track\":\"喜点/集\",\"isNoCopyright\":false,\"comments_count\":0,\"price_types\":[{\"free_track_count\":0,\"price_unit\":\"喜点/集\",\"price_type_id\":1,\"price\":\"0.15\",\"total_track_count\":660,\"id\":18743094,\"discounted_price\":\"0.15\"}],\"anchorUrl\":\"/zhubo/39840471\",\"richTitle\":\"斗破之无上之境Ⅰ<span class =\\\"orange-1\\\">斗破苍穹</span>续集多人剧\",\"vipType\":2},{\"play\":752816,\"user_source\":\"1\",\"cover_path\":\"//imagev2.xmcdn.com/storages/0c8d-audiofreehighqps/C8/DF/CKwRIJIEjCcSAANTawCz1r_U.jpeg!op_type=3&columns=290&rows=290&magick=png\",\"title\":\"斗破苍穹 | 多人混播-喜马免费听\",\"uid\":1014176,\"url\":\"/album/50006354\",\"pinyin\":\"youshengshu\",\"category_id\":3,\"intro\":\"作为攀登计划13.0的学员，我们想不断的提升自己。所以录制这篇小说。只能录制到150集。全部免费。 演播：若素、shayne_猩猩、热热热乐乐乐 对应主播的个人主页，请帮忙点赞关注订阅一下哦 猩猩：https://www.ximalaya.com/zhubo/42826470/ 热热热乐乐乐：https://www.ximalaya.com/zhubo/225610556/ 欢迎各位小可爱提出宝贵意见。 这本书\",\"id\":50006354,\"is_paid\":false,\"is_finished\":0,\"tags\":\"\",\"category_title\":\"有声书\",\"isDraft\":false,\"created_at\":1622565911000,\"type\":\"1\",\"last_uptrack_at_hour\":75992,\"is_v\":true,\"refund_support_type\":0,\"count_comment\":42,\"score\":9.3,\"price_type_id\":0,\"updated_at\":1726868840000,\"isVipFree\":false,\"nickname\":\"若素\",\"custom_title\":\"莫问前路凶吉，但求落幕无悔！谢谢支持！\",\"verify_type\":1,\"vipFreeType\":0,\"serialState\":0,\"price_type_enum\":0,\"tracks\":193,\"isNoCopyright\":false,\"comments_count\":0,\"price_types\":[],\"anchorUrl\":\"/zhubo/1014176\",\"richTitle\":\"<span class =\\\"orange-1\\\">斗破苍穹</span> | 多人混播-喜马免费听\",\"vipType\":0},{\"play\":2110887,\"user_source\":\"1\",\"cover_path\":\"//imagev2.xmcdn.com/storages/80e6-audiofreehighqps/46/13/GMCoOSIGu0EHAAEzvwGLjyiK.jpg!op_type=3&columns=290&rows=290&magick=png\",\"title\":\"斗破苍穹【20亿网络点击神作】【免费版】\",\"uid\":74900129,\"url\":\"/album/69947910\",\"pinyin\":\"youshengshu\",\"category_id\":3,\"intro\":\"新书限免 《道门摸金笔记丨摸金天师》→点击跳转收听←超长篇玄幻小说《太古魂帝》上架啦！点击收听→《太古魂帝》【抽年卡，音箱，耳机，月卡，现金红包····】超多听书福利等你来拿！萧炎，主人公，萧家历史上空前绝后的斗气修炼天才。4岁就开始修炼...\",\"id\":69947910,\"is_paid\":false,\"is_finished\":0,\"category_title\":\"有声书\",\"isDraft\":false,\"created_at\":1659206854000,\"type\":\"1\",\"last_uptrack_at_hour\":98802,\"is_v\":true,\"refund_support_type\":0,\"count_comment\":69,\"score\":9.2,\"price_type_id\":0,\"updated_at\":1734655954000,\"isVipFree\":false,\"nickname\":\"张健讲故事\",\"custom_title\":\"至尊经典，斗帝归来！\",\"verify_type\":1,\"vipFreeType\":0,\"serialState\":0,\"price_type_enum\":0,\"tracks\":434,\"isNoCopyright\":false,\"comments_count\":0,\"price_types\":[],\"anchorUrl\":\"/zhubo/74900129\",\"richTitle\":\"<span class =\\\"orange-1\\\">斗破苍穹</span>【20亿网络点击神作】【免费版】\",\"vipType\":0},{\"play\":152902,\"user_source\":\"1\",\"cover_path\":\"//imagev2.xmcdn.com/storages/188a-audiofreehighqps/96/58/CMCoOSYD5zHAAAFCiwCAmg3g.jpg!op_type=3&columns=290&rows=290&magick=png\",\"title\":\"斗破苍穹｜免费畅听版\",\"uid\":234395951,\"url\":\"/album/45943766\",\"pinyin\":\"youshengshu\",\"category_id\":3,\"intro\":\"《斗破苍穹》 作者｜天蚕土豆 主播｜枭烨 我是有声主播枭烨，此为本人练习作品，由于版权问题，不能更至大结局，介意慎入。如果大家喜欢听记得点点关注，欢迎到评论区轰炸我，不喜欢的也请高抬贵手轻挥衣袖。此书讲述了天才少年萧炎在创造了家族空前绝后的修炼纪录后突然成了废人，种种打击接踵而至。就在他即将绝望的时候，一缕灵魂从他手上的戒指里浮现，一扇全新的大门在面前开启，经过艰苦修炼最终成就辉煌的故事。\",\"id\":45943766,\"is_paid\":false,\"is_finished\":0,\"category_title\":\"有声书\",\"isDraft\":false,\"created_at\":1611327408000,\"type\":\"1\",\"last_uptrack_at_hour\":72870,\"is_v\":true,\"refund_support_type\":0,\"count_comment\":14,\"score\":0.0,\"price_type_id\":0,\"updated_at\":1726867448000,\"isVipFree\":false,\"nickname\":\"枭烨\",\"custom_title\":\"此声有毒｜玄幻网文至尊经典小说\",\"verify_type\":1,\"vipFreeType\":0,\"serialState\":0,\"price_type_enum\":0,\"tracks\":167,\"isNoCopyright\":false,\"comments_count\":0,\"price_types\":[],\"anchorUrl\":\"/zhubo/234395951\",\"richTitle\":\"<span class =\\\"orange-1\\\">斗破苍穹</span>｜免费畅听版\",\"vipType\":0},{\"play\":908921,\"user_source\":\"1\",\"cover_path\":\"//imagev2.xmcdn.com/storages/4411-audiofreehighqps/F8/79/GMCoOSIJuO0sAAUf1QKxBJyE.jpeg!op_type=3&columns=290&rows=290&magick=png\",\"title\":\"【双播】斗破苍穹之我觉醒了抽奖系统 |穿越 |系统\",\"uid\":89113896,\"url\":\"/album/80721012\",\"pinyin\":\"youshengshu\",\"category_id\":3,\"intro\":\"意外穿越到斗破苍穹的世界，并且觉醒了抽奖系统开局直接抢夺原主机缘，剥离药老灵魂记忆且看主角如何玩转斗破世界！！！！！！！\",\"id\":80721012,\"is_paid\":false,\"is_finished\":2,\"tags\":\"\",\"category_title\":\"有声书\",\"isDraft\":false,\"created_at\":1709386630000,\"type\":\"1\",\"last_uptrack_at_hour\":102216,\"is_v\":true,\"refund_support_type\":0,\"count_comment\":31,\"score\":0.0,\"price_type_id\":0,\"updated_at\":1725953021000,\"isVipFree\":false,\"nickname\":\"小鱼儿_丢掉鳞片的鱼\",\"custom_title\":\"开局抢夺原主机缘，消灭药老灵魂\",\"verify_type\":1,\"vipFreeType\":0,\"serialState\":2,\"price_type_enum\":0,\"tracks\":221,\"isNoCopyright\":false,\"comments_count\":0,\"price_types\":[],\"anchorUrl\":\"/zhubo/89113896\",\"richTitle\":\"【双播】<span class =\\\"orange-1\\\">斗破苍穹</span>之我觉醒了抽奖系统 |穿越 |系统\",\"vipType\":0},{\"play\":841212,\"user_source\":\"1\",\"cover_path\":\"//imagev2.xmcdn.com/storages/ae36-audiofreehighqps/F4/4E/GArMCZkKld23AARXzAMBTYyK.jpeg!op_type=3&columns=290&rows=290&magick=png\",\"title\":\"斗破苍穹之大世界 | 公众号：斗破苍穹之大世界\",\"uid\":124071974,\"url\":\"/album/54572265\",\"pinyin\":\"youshengshu\",\"category_id\":3,\"intro\":\"关注微信公众号：斗破苍穹之大世界小说简介：斗气大陆双帝之战后，炎帝萧炎用异火广场封印了魂天帝，拯救了斗气大陆，成为斗气大陆至尊。就这样萧炎在斗气大陆过了几十年平静安稳的日子，然而这种日子不适合他，他的血是热的，不应该就这样冷却下来。当斗...\",\"id\":54572265,\"is_paid\":false,\"is_finished\":0,\"tags\":\"\",\"category_title\":\"有声书\",\"isDraft\":false,\"created_at\":1636375847000,\"type\":\"1\",\"last_uptrack_at_hour\":112171,\"is_v\":true,\"refund_support_type\":0,\"count_comment\":57,\"score\":8.6,\"price_type_id\":0,\"updated_at\":1773288938000,\"isVipFree\":false,\"nickname\":\"懒人有声\",\"custom_title\":\"炎帝萧炎的至尊之路\",\"verify_type\":1,\"vipFreeType\":0,\"serialState\":0,\"price_type_enum\":0,\"tracks\":78,\"isNoCopyright\":false,\"comments_count\":0,\"price_types\":[],\"anchorUrl\":\"/zhubo/124071974\",\"richTitle\":\"<span class =\\\"orange-1\\\">斗破苍穹</span>之大世界 | 公众号：<span class =\\\"orange-1\\\">斗破苍穹</span>之大世界\",\"vipType\":0},{\"play\":127504,\"user_source\":\"1\",\"cover_path\":\"//imagev2.xmcdn.com/storages/07e9-audiofreehighqps/B7/06/GKwRIW4JiwkrAAR6AgKhLyUb.jpeg!op_type=3&columns=290&rows=290&magick=png\",\"title\":\"【免费】斗破苍穹 | 全集动漫 | 小说解读\",\"uid\":281351927,\"url\":\"/album/80251356\",\"pinyin\":\"yule\",\"category_id\":4,\"intro\":\"被视为天赋异禀的少年武者萧炎，九岁时母亲被人追杀致死，父亲讳莫如深，萧炎将母亲留给他的戒指视为珍宝从不离身。萧炎的功力一直到十五岁仍然没有进步，早已订好婚约的家族也来退婚，令萧家蒙受奇耻大辱。萧炎无意中唤醒了戒指的主人药尘老人，在药尘老...\",\"id\":80251356,\"is_paid\":false,\"is_finished\":0,\"tags\":\"\",\"category_title\":\"娱乐\",\"isDraft\":false,\"created_at\":1706378970000,\"type\":\"1\",\"last_uptrack_at_hour\":99704,\"is_v\":true,\"refund_support_type\":0,\"count_comment\":1,\"score\":0.0,\"price_type_id\":0,\"updated_at\":1756743991000,\"isVipFree\":false,\"nickname\":\"暖人心_SoMo\",\"custom_title\":\"能看的小说，能听的动漫\",\"verify_type\":1,\"vipFreeType\":0,\"serialState\":0,\"price_type_enum\":0,\"tracks\":174,\"isNoCopyright\":false,\"comments_count\":0,\"price_types\":[],\"anchorUrl\":\"/zhubo/281351927\",\"richTitle\":\"【免费】<span class =\\\"orange-1\\\">斗破苍穹</span> | 全集动漫 | 小说解读\",\"vipType\":0},{\"play\":3561822,\"user_source\":\"1\",\"cover_path\":\"//imagev2.xmcdn.com/storages/89e0-audiofreehighqps/B2/5F/GMCoOSUG31bbAANA8gGYRrzs.jpeg!op_type=3&columns=290&rows=290&magick=png\",\"title\":\"一切从斗破苍穹开始丨千影残光\",\"uid\":192680427,\"url\":\"/album/70566372\",\"pinyin\":\"youshengshu\",\"category_id\":3,\"intro\":\"耳书 免费制作有声书www.ershu.vip填写邀请码：L3HN3P，领取50万字符只是稍稍抱怨一下人生的苏邪，突然之间就穿越了，穿越的地方竟然是斗破苍穹的世界，一个普通人如何在强者如云的斗气大陆生存呢！还好，苏邪觉醒了自己的金手指——崇拜系统，为了赚取崇...\",\"id\":70566372,\"is_paid\":false,\"is_finished\":2,\"tags\":\"\",\"category_title\":\"有声书\",\"isDraft\":false,\"created_at\":1661572070000,\"type\":\"1\",\"last_uptrack_at_hour\":86861,\"is_v\":true,\"refund_support_type\":0,\"count_comment\":128,\"score\":8.7,\"price_type_id\":0,\"updated_at\":1725952778000,\"isVipFree\":false,\"nickname\":\"哲人国\",\"custom_title\":\"同步字幕\",\"verify_type\":1,\"vipFreeType\":0,\"serialState\":2,\"price_type_enum\":0,\"tracks\":1270,\"isNoCopyright\":false,\"comments_count\":0,\"price_types\":[],\"anchorUrl\":\"/zhubo/192680427\",\"richTitle\":\"一切从<span class =\\\"orange-1\\\">斗破苍穹</span>开始丨千影残光\",\"vipType\":0},{\"play\":19767,\"user_source\":\"1\",\"cover_path\":\"//imagev2.xmcdn.com/storages/d4d9-audiofreehighqps/45/16/GKwRIW4HSl2ZAADu2QHMpcNk.jpg!op_type=3&columns=290&rows=290&magick=png\",\"title\":\"斗破苍穹（激情番剧）\",\"uid\":162246120,\"url\":\"/album/72524926\",\"pinyin\":\"qita\",\"category_id\":1006,\"intro\":\"斗破苍穹激情片\",\"id\":72524926,\"is_paid\":false,\"is_finished\":0,\"category_title\":\"生活\",\"isDraft\":false,\"created_at\":1668586138000,\"type\":\"1\",\"last_uptrack_at_hour\":88776,\"is_v\":true,\"refund_support_type\":0,\"count_comment\":5,\"score\":0.0,\"price_type_id\":0,\"updated_at\":1725180193000,\"isVipFree\":false,\"nickname\":\"老王说动漫\",\"verify_type\":1,\"vipFreeType\":0,\"serialState\":0,\"price_type_enum\":0,\"tracks\":3,\"isNoCopyright\":false,\"comments_count\":0,\"price_types\":[],\"anchorUrl\":\"/zhubo/162246120\",\"richTitle\":\"<span class =\\\"orange-1\\\">斗破苍穹</span>（激情番剧）\",\"vipType\":0}],\"numFound\":1865,\"totalPage\":94,\"start\":0,\"pageSize\":20,\"currentPage\":1,\"sc\":{},\"total\":1865},\"responseHeader\":{\"QTime\":159,\"params\":{\"core\":\"album\",\"defType\":\"edismax\",\"indent\":\"on\",\"qf\":\"category_title^100 title^80 tags^50 intro^0.001\",\"start\":\"0\",\"sort\":\"relation\",\"rows\":\"20\",\"wt\":\"json\"},\"status\":0}}}}",
      "final_url": "https://www.ximalaya.com/revision/search?core=album&spellchecker=true&rows=20&condition=relation&device=iPhone&fq=&paidFilter=false&kw=%E6%96%97%E7%A0%B4%E8%8B%8D%E7%A9%B9&page=1"
    }
  ]
}